<svg xmlns="http://www.w3.org/2000/svg" xmlns:xlink="http://www.w3.org/1999/xlink" width="620.256" height="487.823" viewBox="0 0 620.256 487.823">
  <defs>
    <linearGradient id="linear-gradient" x1="-6.373" y1="1.254" x2="-5.229" y2="1.254" gradientUnits="objectBoundingBox">
      <stop offset="0" stop-color="#191fd1"/>
      <stop offset="0.063" stop-color="#182ad1"/>
      <stop offset="0.177" stop-color="#1749d2"/>
      <stop offset="0.326" stop-color="#157bd4"/>
      <stop offset="0.41" stop-color="#149bd6"/>
      <stop offset="1" stop-color="#20c7a9"/>
    </linearGradient>
    <linearGradient id="linear-gradient-2" y1="0.5" x2="1" y2="0.5" gradientUnits="objectBoundingBox">
      <stop offset="0" stop-color="#191fd1"/>
      <stop offset="0.073" stop-color="#182ad1"/>
      <stop offset="0.204" stop-color="#1749d2"/>
      <stop offset="0.377" stop-color="#157bd4"/>
      <stop offset="0.473" stop-color="#149bd6"/>
      <stop offset="1" stop-color="#20c7a9"/>
    </linearGradient>
    <linearGradient id="linear-gradient-3" y1="0.5" x2="1" y2="0.5" gradientUnits="objectBoundingBox">
      <stop offset="0.473" stop-color="#149bd6"/>
      <stop offset="1" stop-color="#20c7a9"/>
    </linearGradient>
    <linearGradient id="linear-gradient-5" x1="-0.353" y1="2.025" x2="0.663" y2="2.025" gradientUnits="objectBoundingBox">
      <stop offset="0" stop-color="#191fd1"/>
      <stop offset="0.121" stop-color="#182ad1"/>
      <stop offset="0.337" stop-color="#1749d2"/>
      <stop offset="0.622" stop-color="#157bd4"/>
      <stop offset="0.782" stop-color="#149bd6"/>
      <stop offset="1" stop-color="#20c7a9"/>
    </linearGradient>
    <linearGradient id="linear-gradient-6" x1="0.851" y1="0.903" x2="0.149" y2="0.097" xlink:href="#linear-gradient-2"/>
    <clipPath id="clip-path">
      <path id="Path_1438" data-name="Path 1438" d="M1412.913,833.639a3.613,3.613,0,0,1-4.432,2.542l-131.206-37.066a3.613,3.613,0,0,1-2.448-4.485l78.2-276.808a3.613,3.613,0,0,1,4.432-2.54l131.206,37.066a3.613,3.613,0,0,1,2.448,4.485Z" transform="translate(-1274.686 -515.148)" fill="#fff"/>
    </clipPath>
    <clipPath id="clip-path-2">
      <path id="Path_1452" data-name="Path 1452" d="M1078.81,592.946c-9.054,15.246-17.319,40.2-18.344,54.555-.2,2.768,1.612,10.725,2.815,13.221,10.767,22.308,37.762,57.041,53.2,74.907,9.325,10.792,44.4,47.873,84.079,78.465,37.588,28.98,79.8,51.667,90.961,57.195,21.109,10.456,61.381,27.856,85.57,32.643,2.707.535,10.818.266,13.427-.632,13.544-4.658,35.42-19.057,47.768-31.75,5.95-6.116,15.841-19.393,20.3-26.438.464-.734,1.531-2.714-.833-3.381-25.289-7.146-102.4-19.366-102.4-19.366s-8.227-1.659-10.807-.828c-6.723,2.165-13.671,11.479-26.173,10.659-10.324-.678-23.764-10.117-23.764-10.117l-52.359-40.738.016-.018-5.815-4.492-4.6-3.581-.012.015L1163,720.079s-12.5-10.666-15.785-20.535c-3.975-11.949,3.207-21.081,3.574-28.173.141-2.721-3.552-10.3-3.552-10.3s-31.405-71.888-44.722-94.662c-1.245-2.128-2.877-.587-3.464.052C1093.413,572.6,1083.172,585.6,1078.81,592.946Z" transform="translate(-1060.452 -565.323)" fill="url(#linear-gradient)"/>
    </clipPath>
    <clipPath id="clip-path-3">
      <path id="Path_1456" data-name="Path 1456" d="M1219.871,691.7c.728-3.894,4.208-6.5,7.771-5.831l112.546,21.285c3.565.676,5.865,4.378,5.137,8.272l-4.613,24.676c-.726,3.894-4.206,6.5-7.771,5.829L1220.4,724.642c-3.565-.674-5.865-4.376-5.137-8.27Z" transform="translate(-1215.124 -685.759)" fill="#fff"/>
    </clipPath>
    <clipPath id="clip-path-4">
      <path id="Path_1460" data-name="Path 1460" d="M1164.574,671.729a6.921,6.921,0,0,0,3.623-9.045l-49.156-104.039a6.849,6.849,0,0,0-9.26-2.887l-22.546,10.778a6.925,6.925,0,0,0-3.621,9.047l49.154,104.038a6.85,6.85,0,0,0,9.262,2.887Z" transform="translate(-1083.022 -555.009)" fill="#fff"/>
    </clipPath>
  </defs>
  <g id="Group_336" data-name="Group 336" transform="translate(-1060.452 -482.892)">
    <g id="Group_319" data-name="Group 319" transform="translate(1197.581 482.892)">
      <path id="Path_1427" data-name="Path 1427" d="M1136.441,627.963l121.6-145.071,163.427,94.729Z" transform="translate(-1136.267 -482.892)" fill="url(#linear-gradient-2)"/>
      <rect id="Rectangle_178" data-name="Rectangle 178" width="289.623" height="144.265" transform="matrix(0.985, -0.174, 0.174, 0.985, 0, 144.703)" fill="#20154c"/>
      <rect id="Rectangle_179" data-name="Rectangle 179" width="249.185" height="164.76" transform="matrix(0.985, -0.174, 0.174, 0.985, 9.628, 86.121)" fill="#fff"/>
      <g id="Group_317" data-name="Group 317" transform="translate(0.095 145.242)">
        <path id="Path_1428" data-name="Path 1428" d="M1287.9,714.087l-121.079,21.389-30.42-172.2,139.076,74.207Z" transform="translate(-1136.398 -563.276)" fill="url(#linear-gradient-3)"/>
        <path id="Path_1429" data-name="Path 1429" d="M1287.9,714.087l-121.079,21.389-30.42-172.2,139.076,74.207Z" transform="translate(-1136.398 -563.276)" fill="none"/>
      </g>
      <g id="Group_318" data-name="Group 318" transform="translate(180.069 94.858)">
        <path id="Path_1430" data-name="Path 1430" d="M1250.578,728.981l121.078-21.389-30.42-172.2L1236,652.757Z" transform="translate(-1236.003 -535.391)" fill="url(#linear-gradient-3)"/>
        <path id="Path_1431" data-name="Path 1431" d="M1250.578,728.981l121.078-21.389-30.42-172.2L1236,652.757Z" transform="translate(-1236.003 -535.391)" fill="none"/>
      </g>
      <path id="Path_1432" data-name="Path 1432" d="M1153.41,728.936l119.263-157.292,165.936,106.91Z" transform="translate(-1122.576 -411.282)" fill="url(#linear-gradient-5)"/>
      <rect id="Rectangle_180" data-name="Rectangle 180" width="165.304" height="17.487" rx="1.815" transform="matrix(0.985, -0.174, 0.174, 0.985, 52.988, 124.244)" fill="#fff"/>
      <rect id="Rectangle_181" data-name="Rectangle 181" width="165.304" height="17.487" rx="1.815" transform="translate(60.969 124.73) rotate(-10.018)" fill="#c2e5f4"/>
      <rect id="Rectangle_182" data-name="Rectangle 182" width="165.304" height="17.487" rx="1.815" transform="matrix(0.985, -0.174, 0.174, 0.985, 56.614, 100.052)" fill="#c2e5f4"/>
      <rect id="Rectangle_183" data-name="Rectangle 183" width="165.304" height="17.487" rx="1.815" transform="matrix(0.985, -0.174, 0.174, 0.985, 65.611, 149.436)" fill="#c2e5f4"/>
    </g>
    <g id="Group_328" data-name="Group 328" transform="translate(1431.655 513.213)">
      <g id="Group_324" data-name="Group 324">
        <g id="Group_320" data-name="Group 320">
          <path id="Path_1433" data-name="Path 1433" d="M1429.542,860.351c-3.131,11.085-14.923,17.456-26.337,14.231l-121.546-34.336c-11.414-3.225-18.128-14.824-15-25.907l84.635-299.6c3.131-11.083,14.923-17.454,26.337-14.229l121.546,34.336c11.414,3.223,18.128,14.823,15,25.907Z" transform="translate(-1265.892 -499.673)" fill="url(#linear-gradient-6)"/>
          <path id="Path_1434" data-name="Path 1434" d="M1343.615,515.058a2.814,2.814,0,1,1-1.964-3.393A2.773,2.773,0,0,1,1343.615,515.058Z" transform="translate(-1207.628 -490.086)" fill="#fff"/>
          <path id="Path_1435" data-name="Path 1435" d="M1382.559,526.06a2.813,2.813,0,1,1-1.964-3.393A2.77,2.77,0,0,1,1382.559,526.06Z" transform="translate(-1176.205 -481.209)" fill="#fff"/>
          <path id="Path_1436" data-name="Path 1436" d="M1392.677,528.413a1.386,1.386,0,0,1-1.724.931L1347.9,517.18a1.385,1.385,0,0,1-.983-1.695h0a1.387,1.387,0,0,1,1.726-.932l43.058,12.164a1.386,1.386,0,0,1,.981,1.7Z" transform="translate(-1200.559 -487.712)" fill="#fff"/>
        </g>
        <g id="Group_322" data-name="Group 322" transform="translate(15.89 27.962)">
          <path id="Path_1437" data-name="Path 1437" d="M1412.913,833.639a3.613,3.613,0,0,1-4.432,2.542l-131.206-37.066a3.613,3.613,0,0,1-2.448-4.485l78.2-276.808a3.613,3.613,0,0,1,4.432-2.54l131.206,37.066a3.613,3.613,0,0,1,2.448,4.485Z" transform="translate(-1274.686 -515.148)" fill="#fff"/>
          <g id="Group_321" data-name="Group 321" clip-path="url(#clip-path)">
            <line id="Line_1" data-name="Line 1" x2="192.733" y2="56.615" transform="translate(40.07 15.571)" fill="none"/>
            <line id="Line_2" data-name="Line 2" x2="192.732" y2="56.615" transform="translate(-9.769 233.75)" fill="none"/>
          </g>
          <path id="Path_1439" data-name="Path 1439" d="M1412.913,833.639a3.613,3.613,0,0,1-4.432,2.542l-131.206-37.066a3.613,3.613,0,0,1-2.448-4.485l78.2-276.808a3.613,3.613,0,0,1,4.432-2.54l131.206,37.066a3.613,3.613,0,0,1,2.448,4.485Z" transform="translate(-1274.686 -515.148)" fill="none"/>
        </g>
        <g id="Group_323" data-name="Group 323" transform="translate(36.995 329.357)">
          <path id="Path_1440" data-name="Path 1440" d="M1314.716,692.193a3.837,3.837,0,1,1-2.678-4.626A3.781,3.781,0,0,1,1314.716,692.193Z" transform="translate(-1269.559 -677.546)" fill="none"/>
          <path id="Path_1441" data-name="Path 1441" d="M1292.081,687.6c-.333,1.183-1.334,1.422-2.221.533l-2.972-2.978c-.887-.889-.615-1.857.607-2.15l4.091-.983c1.223-.293,1.948.435,1.615,1.617Z" transform="translate(-1286.366 -681.954)" fill="none"/>
          <path id="Path_1442" data-name="Path 1442" d="M1333.575,700.758a.758.758,0,0,1-.941.509l-5.168-1.46a.757.757,0,0,1-.535-.925l1.587-5.616a.755.755,0,0,1,.94-.508l5.168,1.46a.755.755,0,0,1,.535.925Z" transform="translate(-1253.658 -673.261)" fill="none"/>
        </g>
      </g>
      <g id="Group_327" data-name="Group 327" transform="translate(35.796 86.779)">
        <g id="Group_325" data-name="Group 325" transform="translate(34.29)">
          <path id="Path_1443" data-name="Path 1443" d="M1421.365,574.318,1327.744,547.8a2.474,2.474,0,0,0-3.053,1.706l-6.293,22.215a2.474,2.474,0,0,0,1.706,3.055l8.727,2.472,2.777.788,4.2,6.333,1.35-4.761,76.562,21.691a2.473,2.473,0,0,0,3.054-1.706l6.3-22.216A2.475,2.475,0,0,0,1421.365,574.318Z" transform="translate(-1293.689 -547.701)" fill="#c2e5f4"/>
          <path id="Path_1444" data-name="Path 1444" d="M1405.64,594.621a2.456,2.456,0,0,0-.887-.466l-70.811-20.062a2.486,2.486,0,0,0-3.062,1.733l-6.306,22.262a2.486,2.486,0,0,0,1.7,3.081l62.1,17.593,2.557,4.9,1.095-3.869,5.059,1.433a2.485,2.485,0,0,0,3.061-1.731l6.308-22.262A2.5,2.5,0,0,0,1405.64,594.621Z" transform="translate(-1288.708 -526.479)" fill="#c2e5f4"/>
          <path id="Path_1445" data-name="Path 1445" d="M1314.124,595.877l93.621,26.523a2.475,2.475,0,0,1,1.706,3.055l-6.293,22.215a2.475,2.475,0,0,1-3.056,1.706l-8.727-2.474-2.777-.786-6.9,3.187,1.35-4.761-76.564-21.69a2.474,2.474,0,0,1-1.706-3.055l6.293-22.215A2.475,2.475,0,0,1,1314.124,595.877Z" transform="translate(-1304.681 -508.905)" fill="#c2e5f4"/>
          <path id="Path_1446" data-name="Path 1446" d="M1392.018,642.7a2.421,2.421,0,0,0-.887-.464l-70.811-20.062a2.45,2.45,0,0,0-1-.069,2.506,2.506,0,0,0-2.064,1.8l-6.306,22.261a2.491,2.491,0,0,0,1.7,3.082l62.1,17.592,2.557,4.9,1.1-3.869,5.057,1.433a2.489,2.489,0,0,0,3.063-1.733l6.306-22.261A2.5,2.5,0,0,0,1392.018,642.7Z" transform="translate(-1299.699 -487.684)" fill="#c2e5f4"/>
          <rect id="Rectangle_184" data-name="Rectangle 184" width="4.536" height="82.05" transform="translate(36.812 17.589) rotate(-74.182)" fill="#fff"/>
          <rect id="Rectangle_185" data-name="Rectangle 185" width="4.535" height="82.05" transform="translate(11.863 105.657) rotate(-74.182)" fill="#fff"/>
          <rect id="Rectangle_186" data-name="Rectangle 186" width="4.536" height="56.899" transform="translate(48.986 66.892) rotate(-74.182)" fill="#fff"/>
          <rect id="Rectangle_187" data-name="Rectangle 187" width="4.536" height="56.899" transform="translate(24.486 153.372) rotate(-74.182)" fill="#fff"/>
        </g>
        <g id="Group_326" data-name="Group 326" transform="translate(0 197.814)">
          <path id="Path_1447" data-name="Path 1447" d="M1395.15,694.848a9.289,9.289,0,0,1-11.472,6.407l-91.214-25.84a9.292,9.292,0,0,1-6.407-11.474h0a9.292,9.292,0,0,1,11.472-6.407l91.214,25.842a9.291,9.291,0,0,1,6.407,11.472Z" transform="translate(-1285.703 -657.18)" fill="#fff"/>
          <path id="Path_1448" data-name="Path 1448" d="M1296.507,665.445a3.77,3.77,0,1,1-2.6-4.656A3.771,3.771,0,0,1,1296.507,665.445Z" transform="translate(-1282.956 -654.384)" fill="none"/>
        </g>
      </g>
    </g>
    <g id="Group_335" data-name="Group 335" transform="translate(1060.452 613.197)">
      <g id="Group_330" data-name="Group 330" transform="translate(0 18.637)">
        <path id="Path_1449" data-name="Path 1449" d="M1078.81,592.946c-9.054,15.246-17.319,40.2-18.344,54.555-.2,2.768,1.612,10.725,2.815,13.221,10.767,22.308,37.762,57.041,53.2,74.907,9.325,10.792,44.4,47.873,84.079,78.465,37.588,28.98,79.8,51.667,90.961,57.195,21.109,10.456,61.381,27.856,85.57,32.643,2.707.535,10.818.266,13.427-.632,13.544-4.658,35.42-19.057,47.768-31.75,5.95-6.116,15.841-19.393,20.3-26.438.464-.734,1.531-2.714-.833-3.381-25.289-7.146-102.4-19.366-102.4-19.366s-8.227-1.659-10.807-.828c-6.723,2.165-13.671,11.479-26.173,10.659-10.324-.678-23.764-10.117-23.764-10.117l-52.359-40.738.016-.018-5.815-4.492-4.6-3.581-.012.015L1163,720.079s-12.5-10.666-15.785-20.535c-3.975-11.949,3.207-21.081,3.574-28.173.141-2.721-3.552-10.3-3.552-10.3s-31.405-71.888-44.722-94.662c-1.245-2.128-2.877-.587-3.464.052C1093.413,572.6,1083.172,585.6,1078.81,592.946Z" transform="translate(-1060.452 -565.323)" fill="url(#linear-gradient)"/>
        <g id="Group_329" data-name="Group 329" clip-path="url(#clip-path-2)">
          <path id="Path_1450" data-name="Path 1450" d="M1126.4,677.329c-.237,7.193-7.424,16.321-3.111,28.532,3.563,10.086,16.594,21.162,16.594,21.162l71.651,55.37.012-.016,4.792,3.728,6.051,4.676-.016.02,54.51,42.4s13.971,9.849,24.573,10.744c12.838,1.082,19.782-8.237,26.635-10.3,2.631-.791,11.1,1.057,11.1,1.057s70.166,12.33,100.213,20.253c2.694-3.675,5.119-7.179,6.785-9.813.464-.734,1.528-2.714-.842-3.388-25.363-7.206-102.691-19.59-102.691-19.59s-8.248-1.677-10.834-.851c-6.736,2.156-13.683,11.472-26.218,10.624-10.352-.7-23.842-10.176-23.842-10.176l-52.567-40.9.016-.018-5.836-4.51-4.622-3.6-.012.015-69.107-53.395s-12.549-10.706-15.861-20.595c-4.009-11.976,8.865-17.669,9.219-24.769.135-2.727-9.269-13.761-9.269-13.761s-31.622-72.054-45.015-94.886c-1.252-2.134-2.884-.594-3.471.045-2.107,2.291-4.859,5.542-7.7,9.1,15.277,27.206,45.02,92.307,45.02,92.307S1126.488,674.57,1126.4,677.329Z" transform="translate(-1046.671 -566.183)" fill="#20154c" opacity="0.2"/>
          <path id="Path_1451" data-name="Path 1451" d="M1069.478,601.159s-2.28,15.709-1.68,21.258c.249,2.309,1.8,8.731,3.856,11.6,2.961,4.132,12.885,15.21,12.885,15.21Z" transform="translate(-1054.605 -536.408)" fill="#fff"/>
        </g>
        <path id="Path_1453" data-name="Path 1453" d="M1078.81,592.946c-9.054,15.246-17.319,40.2-18.344,54.555-.2,2.768,1.612,10.725,2.815,13.221,10.767,22.308,37.762,57.041,53.2,74.907,9.325,10.792,44.4,47.873,84.079,78.465,37.588,28.98,79.8,51.667,90.961,57.195,21.109,10.456,61.381,27.856,85.57,32.643,2.707.535,10.818.266,13.427-.632,13.544-4.658,35.42-19.057,47.768-31.75,5.95-6.116,15.841-19.393,20.3-26.438.464-.734,1.531-2.714-.833-3.381-25.289-7.146-102.4-19.366-102.4-19.366s-8.227-1.659-10.807-.828c-6.723,2.165-13.671,11.479-26.173,10.659-10.324-.678-23.764-10.117-23.764-10.117l-52.359-40.738.016-.018-5.815-4.492-4.6-3.581-.012.015L1163,720.079s-12.5-10.666-15.785-20.535c-3.975-11.949,3.207-21.081,3.574-28.173.141-2.721-3.552-10.3-3.552-10.3s-31.405-71.888-44.722-94.662c-1.245-2.128-2.877-.587-3.464.052C1093.413,572.6,1083.172,585.6,1078.81,592.946Z" transform="translate(-1060.452 -565.323)" fill="none"/>
      </g>
      <g id="Group_332" data-name="Group 332" transform="translate(279.472 236.249)">
        <path id="Path_1454" data-name="Path 1454" d="M1219.871,691.7c.728-3.894,4.208-6.5,7.771-5.831l112.546,21.285c3.565.676,5.865,4.378,5.137,8.272l-4.613,24.676c-.726,3.894-4.206,6.5-7.771,5.829L1220.4,724.642c-3.565-.674-5.865-4.376-5.137-8.27Z" transform="translate(-1215.124 -685.759)" fill="#fff"/>
        <g id="Group_331" data-name="Group 331" clip-path="url(#clip-path-3)">
          <path id="Path_1455" data-name="Path 1455" d="M1209.362,691.433l175.568,31.921-2.224,10.708-175.58-32.19Z" transform="translate(-1221.578 -681.182)" fill="#c2e5f4"/>
        </g>
        <path id="Path_1457" data-name="Path 1457" d="M1219.871,691.7c.728-3.894,4.208-6.5,7.771-5.831l112.546,21.285c3.565.676,5.865,4.378,5.137,8.272l-4.613,24.676c-.726,3.894-4.206,6.5-7.771,5.829L1220.4,724.642c-3.565-.674-5.865-4.376-5.137-8.27Z" transform="translate(-1215.124 -685.759)" fill="none"/>
      </g>
      <g id="Group_334" data-name="Group 334" transform="translate(40.782)">
        <path id="Path_1458" data-name="Path 1458" d="M1164.574,671.729a6.921,6.921,0,0,0,3.623-9.045l-49.156-104.039a6.849,6.849,0,0,0-9.26-2.887l-22.546,10.778a6.925,6.925,0,0,0-3.621,9.047l49.154,104.038a6.85,6.85,0,0,0,9.262,2.887Z" transform="translate(-1083.022 -555.009)" fill="#fff"/>
        <g id="Group_333" data-name="Group 333" clip-path="url(#clip-path-4)">
          <path id="Path_1459" data-name="Path 1459" d="M1165.994,702.923l-75.888-164.2-9.034,4.291,75.211,164.425Z" transform="translate(-1084.597 -568.148)" fill="#c2e5f4"/>
        </g>
        <path id="Path_1461" data-name="Path 1461" d="M1164.574,671.729a6.921,6.921,0,0,0,3.623-9.045l-49.156-104.039a6.849,6.849,0,0,0-9.26-2.887l-22.546,10.778a6.925,6.925,0,0,0-3.621,9.047l49.154,104.038a6.85,6.85,0,0,0,9.262,2.887Z" transform="translate(-1083.022 -555.009)" fill="none"/>
      </g>
    </g>
  </g>
</svg>
