<svg xmlns="http://www.w3.org/2000/svg" width="329" height="126.003" viewBox="0 0 329 126.003">
  <g id="Group_352" data-name="Group 352" transform="translate(-1000.5 -296.832)">
    <path id="Path_1484" data-name="Path 1484" d="M1309.257,354.607v2.142a20.315,20.315,0,0,1,18.112,20.17v56.59a20.311,20.311,0,0,1-20.288,20.288H1022.919a20.311,20.311,0,0,1-20.288-20.288v-56.59a20.311,20.311,0,0,1,20.288-20.288h198.548V354.5H1022.919a22.444,22.444,0,0,0-22.419,22.419v56.59a22.445,22.445,0,0,0,22.419,22.419h284.162a22.445,22.445,0,0,0,22.419-22.419v-56.59A22.449,22.449,0,0,0,1309.257,354.607Z" transform="translate(0 -33.092)" fill="#fff"/>
    <path id="Path_1485" data-name="Path 1485" d="M1063,453.76h6.392a7.121,7.121,0,0,0,3.007,4.248,7.689,7.689,0,0,0,4.418.951,8.027,8.027,0,0,0,5.4-1.78,5.835,5.835,0,0,0,2.087-4.664q0-3.252-1.872-4.419a22.556,22.556,0,0,0-2.976-1.626q-1.1-.46-5.4-1.749A16.136,16.136,0,0,1,1067,440.61a10.244,10.244,0,0,1-2.762-7.487,10.487,10.487,0,0,1,3.713-8.193,13.7,13.7,0,0,1,9.42-3.283,14.746,14.746,0,0,1,12.335,5.891l-4.3,4.357a13.244,13.244,0,0,0-3.835-3.608,9.559,9.559,0,0,0-4.51-.933,7.074,7.074,0,0,0-4.817,1.629,5.256,5.256,0,0,0-1.872,4.149q0,3.381,2.424,4.487t3.283,1.383q.858.276,4.94,1.507a13.957,13.957,0,0,1,6.75,4.363,11.022,11.022,0,0,1,2.669,7.377,11.472,11.472,0,0,1-3.927,8.851,15.43,15.43,0,0,1-2.866,2.023,16.086,16.086,0,0,1-12.125.863,13.656,13.656,0,0,1-7.012-5.86A12.794,12.794,0,0,1,1063,453.76Z" transform="translate(-35.865 -71.623)" fill="#fff"/>
    <path id="Path_1486" data-name="Path 1486" d="M1136,453.76h6.393a7.12,7.12,0,0,0,3.007,4.248,7.689,7.689,0,0,0,4.418.951,8.027,8.027,0,0,0,5.4-1.78,5.835,5.835,0,0,0,2.087-4.664q0-3.252-1.872-4.419a22.548,22.548,0,0,0-2.976-1.626q-1.1-.46-5.4-1.749A16.136,16.136,0,0,1,1140,440.61a10.244,10.244,0,0,1-2.762-7.487,10.487,10.487,0,0,1,3.713-8.193,13.7,13.7,0,0,1,9.42-3.283,14.746,14.746,0,0,1,12.335,5.891l-4.3,4.357a13.244,13.244,0,0,0-3.835-3.608,9.559,9.559,0,0,0-4.51-.933,7.074,7.074,0,0,0-4.817,1.629,5.256,5.256,0,0,0-1.872,4.149q0,3.381,2.424,4.487t3.283,1.383q.858.276,4.94,1.507a13.956,13.956,0,0,1,6.75,4.363,11.022,11.022,0,0,1,2.669,7.377,11.472,11.472,0,0,1-3.927,8.851,15.43,15.43,0,0,1-2.866,2.023,16.086,16.086,0,0,1-12.125.863,13.656,13.656,0,0,1-7.012-5.86A12.794,12.794,0,0,1,1136,453.76Z" transform="translate(-77.755 -71.623)" fill="#fff"/>
    <path id="Path_1487" data-name="Path 1487" d="M1346,453.76h6.392a7.121,7.121,0,0,0,3.007,4.248,7.689,7.689,0,0,0,4.418.951,8.027,8.027,0,0,0,5.4-1.78,5.835,5.835,0,0,0,2.087-4.664q0-3.252-1.872-4.419a22.548,22.548,0,0,0-2.976-1.626q-1.1-.46-5.4-1.749A16.137,16.137,0,0,1,1350,440.61a10.243,10.243,0,0,1-2.761-7.487,10.487,10.487,0,0,1,3.713-8.193,13.7,13.7,0,0,1,9.42-3.283,14.746,14.746,0,0,1,12.335,5.891l-4.3,4.357a13.246,13.246,0,0,0-3.836-3.608,9.559,9.559,0,0,0-4.51-.933,7.075,7.075,0,0,0-4.817,1.629,5.256,5.256,0,0,0-1.872,4.149q0,3.381,2.424,4.487t3.283,1.383q.859.276,4.94,1.507a13.956,13.956,0,0,1,6.75,4.363,11.022,11.022,0,0,1,2.669,7.377,11.472,11.472,0,0,1-3.927,8.851,15.43,15.43,0,0,1-2.866,2.023,16.086,16.086,0,0,1-12.125.863,13.655,13.655,0,0,1-7.013-5.86A12.794,12.794,0,0,1,1346,453.76Z" transform="translate(-198.26 -71.623)" fill="#fff"/>
    <path id="Path_1488" data-name="Path 1488" d="M1659,471.767h4.765a5.31,5.31,0,0,0,2.242,3.166,5.735,5.735,0,0,0,3.294.709,5.986,5.986,0,0,0,4.026-1.327,4.35,4.35,0,0,0,1.555-3.477q0-2.425-1.4-3.294a16.841,16.841,0,0,0-2.219-1.212q-.823-.343-4.026-1.3a12.03,12.03,0,0,1-5.26-3.065,7.636,7.636,0,0,1-2.058-5.581,7.816,7.816,0,0,1,2.768-6.107,10.21,10.21,0,0,1,7.022-2.447,10.993,10.993,0,0,1,9.2,4.392l-3.2,3.248a9.891,9.891,0,0,0-2.859-2.69,7.131,7.131,0,0,0-3.363-.7,5.273,5.273,0,0,0-3.591,1.215,3.917,3.917,0,0,0-1.4,3.093,3.3,3.3,0,0,0,1.807,3.345q1.807.825,2.448,1.03t3.682,1.123a10.4,10.4,0,0,1,5.032,3.253,8.213,8.213,0,0,1,1.99,5.5,8.551,8.551,0,0,1-2.928,6.6,11.492,11.492,0,0,1-2.136,1.508,11.989,11.989,0,0,1-9.038.643,10.178,10.178,0,0,1-5.227-4.368A9.532,9.532,0,0,1,1659,471.767Z" transform="translate(-377.87 -86.647)" fill="#fff"/>
    <path id="Path_1489" data-name="Path 1489" d="M1203.292,462.464l22.332-44.309,22.885,43.882-6.782.35-7.325-14.7h-16.8l-7.423,14.724Zm16.822-20.293,11.64-.006-5.824-11.529Z" transform="translate(-116.369 -69.619)" fill="#fff"/>
    <path id="Path_1490" data-name="Path 1490" d="M1433.921,440.552h-8.591v15.4q0,5.338,5.461,5.339a19.723,19.723,0,0,0,4.235-.552l-1.1,5.584a26.2,26.2,0,0,1-4.3.43q-9.942,0-9.942-10.8v-15.4h-4.725l2.148-5.339h2.577v-5.675l5.646-3.607v9.282h8.591Z" transform="translate(-237.83 -74.081)" fill="#fff"/>
    <path id="Path_1491" data-name="Path 1491" d="M1496.322,467.811l1.227,6.075q-6.322,4.664-12.826,4.664a16.365,16.365,0,0,1-11.783-4.664,15.3,15.3,0,0,1-4.848-11.476,16.134,16.134,0,0,1,16.2-16.14q9.451,0,13.992,8.407l-22.338,13.133a9.67,9.67,0,0,0,8.715,5.032Q1489.877,472.843,1496.322,467.811Zm-22.256-4.874,15.81-9.366a8.241,8.241,0,0,0-5.584-2.022,10.5,10.5,0,0,0-10.247,10.28Z" transform="translate(-268.321 -85.753)" fill="#fff"/>
    <path id="Path_1492" data-name="Path 1492" d="M1575.09,467.811l1.227,6.075q-6.321,4.664-12.825,4.664a16.365,16.365,0,0,1-11.783-4.664,15.3,15.3,0,0,1-4.848-11.476,16.134,16.134,0,0,1,16.2-16.14q9.45,0,13.992,8.407l-22.338,13.133a9.67,9.67,0,0,0,8.714,5.032Q1568.644,472.843,1575.09,467.811Zm-22.256-4.874,15.81-9.366a8.241,8.241,0,0,0-5.584-2.022,10.5,10.5,0,0,0-10.248,10.28Z" transform="translate(-313.52 -85.753)" fill="#fff"/>
    <path id="Path_1493" data-name="Path 1493" d="M1630.668,463.235V420.223l5.646.055V463.29Z" transform="translate(-361.612 -70.806)" fill="#fff"/>
    <g id="Group_351" data-name="Group 351" transform="translate(1221.462 296.832)">
      <g id="Group_349" data-name="Group 349" transform="translate(10.233)">
        <path id="Path_1494" data-name="Path 1494" d="M1543,332.279v-23.12l33.459-12.327,33.236,12.546v22.681Zm2.131-21.634v19.5l62.433-.206V310.852l-31.115-11.746Z" transform="translate(-1543 -296.832)" fill="#ff6d00"/>
      </g>
      <g id="Group_350" data-name="Group 350" transform="translate(0 33.098)">
        <rect id="Rectangle_203" data-name="Rectangle 203" width="87.791" height="2.131" transform="translate(0 0.429) rotate(-0.28)" fill="#ff6d00"/>
      </g>
    </g>
  </g>
</svg>
